Thera;12;None;Unknown;31000005;No
J015092;1;Black hole;N110 (H), Z060 (N);31002505;No
J005834;1;Cataclysmic Variable;N110 (H), Z060 (N);31002506;No
J012402;1;Magnetar;N110 (H), Z060 (N);31002507;No
J005926;1;Pulsar;N110 (H), J244 (L);31002508;No
J010569;1;Red Giant;N110 (H), J244 (L);31002509;No
J012157;1;None;J244(L), Z060 (N);31002510;No
J002757;1;None; ?;31002511;No
J004791;1;None;N110 (H), J244 (L);31002512;No
J004317;1;None; ?;31002513;No
J002216;1;None; ?;31002514;No
J005482;2;Black hole;Z647 (C1), A239 (L), B274 (H);31002515;No
J005900;2;Cataclysmic Variable;A239 (L), E545 (N), Y683 (C4);31002516;No
J013070;2;Magnetar; ?;31002517;No
J001057;2;Pulsar;B274 (H), A239 (L), E545 (N), D382 (C2);31002518;No
J011321;2;Red Giant;B274(H), E545(N), Y683(C4);31002519;No
J013123; ?;None; ?;31002520;No
J012735; ?;None; ?;31002521;No
J012635;2;None;B274 (H), A239 (L);31002522;No
J010000;2;None;D382 (C2), B274 (H), Z647 (C1);31002523;No
J001890;2;None;Z647 (C1), B274 (H), A239 (L);31002524;No
J002964;2;None;A239 (L), N062 (C5), E545 (N);31002525;No
J004686;3;None;A239(L), O477(C3), E545(N);31002526;No
J011563;3;Black hole;D845 (H), U210 (L);31002527;No
J001348;3;Cataclysmic Variable;U210 (L), D845 (H);31002528;No
J002838;3;Magnetar;K346 (N), U210 (L);31002529;No
J001670;3;Pulsar;K346 (N), U210 (L);31002530;No
J014348; ?;Red Giant; ?;31002531;No
J003789;3;None;D845 (H), U210 (L);31002532;No
J012794; ?;None; ?;31002533;No
J005923; ?;None; ?;31002534;No
J001398;3;None;U210 (L), K346 (N);31002535;No
J011339;3;None;U210 (L), D845 (H);31002536;No
J004283;3;None;K346 (N), U210 (L);31002537;No
J002625; ?;Black hole; ?;31002538;No
J004470;4;Black hole;C247 (C3), X877 (C4), U210 (L);31002539;No
J011824; ?;Cataclysmic Variable; ?;31002540;No
J010247; ?;Cataclysmic Variable; ?;31002541;No
J002423;4;Magnetar;D845 (H), P060 (C1), N766 (C2);31002542;No
J001302;4;Magnetar;H900 (C5), U574 (C6), K346 (N);31002543;No
J010556;4;Pulsar;P060 (C1), D845 (H), N766 (C2);31002544;No
J011778;4;Pulsar;P060 (C1), C247 (C3), D845 (H);31002545;No
J005259;4;Red Giant;X877 (C4), D845 (H), C247 (C3);31002546;No
J005969;4;Red Giant;U574 (C6), H900 (C5), K346 (N);31002547;No
J001769;4;Wolf Rayet;X877 (C4);31002548;No
J004150;4;Wolf-Rayet;B274 (H);31002549;No
J005872; ?;None; ?;31002550;No
J011376;3;None;X877 (C4), H900 (C5), U210 (LS);31002551;No
J005299;4;None;H900(C5), L005(C2), K346(N), C247(C3);31002552;No
J011355; ?;None; ?;31002553;No
J011195;4;None;U210 (L), X877(C4), H900 (C5);31002554;No
J005280; ?;None; ?;31002555;No
J010811;5;Black hole;K346 (N), V753 (C6);31002556;No
J001694;5;Black hole;K346 (N), H296 (C5);31002557;No
J003941; ?;Cataclysmic Variable; ?;31002558;No
J011790;5;Cataclysmic Variable;K346 (N), M267 (C3);31002559;No
J013146;5;Magnetar; ?;31002560;No
J004998; ?;Magnetar; ?;31002561;No
J003382; ?;Pulsar; ?;31002562;No
J003546;5;Pulsar;U210 (L), M267 (C3), D792 (H);31002563;No
J001820;5;Red Giant; ?;31002564;No
J012578; ?;Red Giant; ?;31002565;No
J012773; ?;Wolf Rayet; ?;31002566;No
J005223; ?;Wolf Rayet; ?;31002567;No
J005663; ?;None; ?;31002568;No
J003793; ?;None; ?;31002569;No
J004128;5;None;U201 (L), H296 (C5);31002570;No
J005070;5;None;V753 (C6), K346 (N);31002571;No
J001025;5;None;M267 (C3), U210 (L);31002572;No
J005724;5;None;H296 (C5), K346 (NS);31002573;No
J004921;5;None;H296 (C5), K346 (N);31002574;No
J012686;6;None;V911 (C5), C391 (L), K346 (N), C248 (N);31002575;No
J010366; ?;None; ?;31002576;No
J012475;6;None;V911 (C5), K346 (C3);31002577;No
J015227;6;None;C248 (N), K346 (C3), W237 (C6);31002578;No
J010951;6;None;V911 (C5), K346 (N);31002579;No
J000895; ?;Wolf Rayet;C008 (C5), Q003 (N);31002580;Yes
J000487; ?;Wolf Rayet; ?;31002581;Yes
J000621; ?;Wolf Rayet; ?;31002582;Yes
J000551; ?;Wolf Rayet; ?;31002583;Yes
J000630;1;Wolf Rayet;E004 (C1), Q003 (N), M001 (C4);31002584;Yes
J000452; ?;Wolf Rayet; ?;31002585;Yes
J000327;2;Wolf Rayet;C008 (C5), L005 (C2), Q003 (N);31002586;Yes
J000186;2;Wolf Rayet;L005 (C2), C008 (C5), Q003 (N);31002587;Yes
J000528;2;Wolf Rayet;M001 (C4), Q003 (N), Z006 (C3);31002588;Yes
J000353; ?;Wolf Rayet; ?;31002589;Yes
J000461;1;Wolf Rayet;Z006 (C3), Q003 (N);31002590;Yes
J000522;1;Wolf Rayet;Z006(C3), L005(C2), Q003(N);31002591;Yes
J000965;3;Wolf Rayet;Z006 (C3), Q003 (N);31002592;Yes
J000304; ?;Wolf Rayet; ?;31002593;Yes
J000595;1;Wolf Rayet;L005 (C2), C008 (C5), Q003 (N);31002594;Yes
J000685;3;Wolf Rayet; ?;31002595;Yes
J000844;3;Wolf Rayet;L005 (C2), Q003 (NS);31002596;Yes
J000719; ?;Wolf Rayet; ?;31002597;Yes
J000726; ?;Wolf Rayet; ?;31002598;Yes
J000214;3?;Wolf Rayet;Q003 (N), C008 (C5);31002599;Yes
J000652;4;Wolf Rayet;G008 (C6), Q003 (N);31002600;Yes
J000313;3;Wolf Rayet;C008 (C5), Q003 (N);31002601;Yes
J000687;3;Wolf Rayet;E004 (C1), Q003 (N);31002602;Yes
J000427;3;Wolf Rayet;Z006 (C3), Q003 (N);31002603;Yes
J000102;3;Wolf Rayet;Q003 (N), Z006 (C3);31002604;Yes